solution\sort\FlipWordAlphabetSortedTest.class
solution\MainTest.class
solution\sort\LastCharSortedTest.class
solution\sort\LengthSortedTest.class
solution\sort\AlphabetSortedTest.class
solution\sort\HashCodeSortedTest.class
solution\sort\HalfWordSortedTest.class
