D:\project\Task2\src\test\java\solution\sort\LastCharSortedTest.java
D:\project\Task2\src\test\java\solution\sort\LengthSortedTest.java
D:\project\Task2\src\test\java\solution\sort\FlipWordAlphabetSortedTest.java
D:\project\Task2\src\test\java\solution\sort\HashCodeSortedTest.java
D:\project\Task2\src\test\java\solution\sort\HalfWordSortedTest.java
D:\project\Task2\src\test\java\solution\MainTest.java
D:\project\Task2\src\test\java\solution\sort\AlphabetSortedTest.java
